^C:\USERS\WESLEY\DOCUMENTS\VISUAL STUDIO 2017\PROJECTS\LAB4_VECTSPACESHIPSCONTINUE\2DCALCULATOR\ADDITIONTAB.CPP
/c /I"C:\USERS\WESLEY\DOCUMENTS\VISUAL STUDIO 2017\PROJECTS\LAB4_VECTSPACESHIPSCONTINUE\\\ENGINE\\" /I"C:\USERS\WESLEY\DOCUMENTS\VISUAL STUDIO 2017\PROJECTS\LAB4_VECTSPACESHIPSCONTINUE\..\\MIDDLEWARE\\INCLUDE\\" /ZI /nologo /W4 /WX- /diagnostics:classic /Od /Oy- /D WIN32 /D _DEBUG /D _CONSOLE /D _UNICODE /D UNICODE /Gm /EHsc /RTC1 /MDd /GS /fp:precise /Zc:wchar_t /Zc:forScope /Zc:inline /Fo"DEBUG\\" /Fd"DEBUG\VC141.PDB" /Gd /TP /analyze- C:\USERS\WESLEY\DOCUMENTS\VISUAL STUDIO 2017\PROJECTS\LAB4_VECTSPACESHIPSCONTINUE\2DCALCULATOR\ADDITIONTAB.CPP
^C:\USERS\WESLEY\DOCUMENTS\VISUAL STUDIO 2017\PROJECTS\LAB4_VECTSPACESHIPSCONTINUE\2DCALCULATOR\AFFINETRANSFORMTAB.CPP
/c /I"C:\USERS\WESLEY\DOCUMENTS\VISUAL STUDIO 2017\PROJECTS\LAB4_VECTSPACESHIPSCONTINUE\\\ENGINE\\" /I"C:\USERS\WESLEY\DOCUMENTS\VISUAL STUDIO 2017\PROJECTS\LAB4_VECTSPACESHIPSCONTINUE\..\\MIDDLEWARE\\INCLUDE\\" /ZI /nologo /W4 /WX- /diagnostics:classic /Od /Oy- /D WIN32 /D _DEBUG /D _CONSOLE /D _UNICODE /D UNICODE /Gm /EHsc /RTC1 /MDd /GS /fp:precise /Zc:wchar_t /Zc:forScope /Zc:inline /Fo"DEBUG\\" /Fd"DEBUG\VC141.PDB" /Gd /TP /analyze- C:\USERS\WESLEY\DOCUMENTS\VISUAL STUDIO 2017\PROJECTS\LAB4_VECTSPACESHIPSCONTINUE\2DCALCULATOR\AFFINETRANSFORMTAB.CPP
^C:\USERS\WESLEY\DOCUMENTS\VISUAL STUDIO 2017\PROJECTS\LAB4_VECTSPACESHIPSCONTINUE\2DCALCULATOR\DOTTAB.CPP
/c /I"C:\USERS\WESLEY\DOCUMENTS\VISUAL STUDIO 2017\PROJECTS\LAB4_VECTSPACESHIPSCONTINUE\\\ENGINE\\" /I"C:\USERS\WESLEY\DOCUMENTS\VISUAL STUDIO 2017\PROJECTS\LAB4_VECTSPACESHIPSCONTINUE\..\\MIDDLEWARE\\INCLUDE\\" /ZI /nologo /W4 /WX- /diagnostics:classic /Od /Oy- /D WIN32 /D _DEBUG /D _CONSOLE /D _UNICODE /D UNICODE /Gm /EHsc /RTC1 /MDd /GS /fp:precise /Zc:wchar_t /Zc:forScope /Zc:inline /Fo"DEBUG\\" /Fd"DEBUG\VC141.PDB" /Gd /TP /analyze- C:\USERS\WESLEY\DOCUMENTS\VISUAL STUDIO 2017\PROJECTS\LAB4_VECTSPACESHIPSCONTINUE\2DCALCULATOR\DOTTAB.CPP
^C:\USERS\WESLEY\DOCUMENTS\VISUAL STUDIO 2017\PROJECTS\LAB4_VECTSPACESHIPSCONTINUE\2DCALCULATOR\LERPTAB.CPP
/c /I"C:\USERS\WESLEY\DOCUMENTS\VISUAL STUDIO 2017\PROJECTS\LAB4_VECTSPACESHIPSCONTINUE\\\ENGINE\\" /I"C:\USERS\WESLEY\DOCUMENTS\VISUAL STUDIO 2017\PROJECTS\LAB4_VECTSPACESHIPSCONTINUE\..\\MIDDLEWARE\\INCLUDE\\" /ZI /nologo /W4 /WX- /diagnostics:classic /Od /Oy- /D WIN32 /D _DEBUG /D _CONSOLE /D _UNICODE /D UNICODE /Gm /EHsc /RTC1 /MDd /GS /fp:precise /Zc:wchar_t /Zc:forScope /Zc:inline /Fo"DEBUG\\" /Fd"DEBUG\VC141.PDB" /Gd /TP /analyze- C:\USERS\WESLEY\DOCUMENTS\VISUAL STUDIO 2017\PROJECTS\LAB4_VECTSPACESHIPSCONTINUE\2DCALCULATOR\LERPTAB.CPP
^C:\USERS\WESLEY\DOCUMENTS\VISUAL STUDIO 2017\PROJECTS\LAB4_VECTSPACESHIPSCONTINUE\2DCALCULATOR\MAIN.CPP
/c /I"C:\USERS\WESLEY\DOCUMENTS\VISUAL STUDIO 2017\PROJECTS\LAB4_VECTSPACESHIPSCONTINUE\\\ENGINE\\" /I"C:\USERS\WESLEY\DOCUMENTS\VISUAL STUDIO 2017\PROJECTS\LAB4_VECTSPACESHIPSCONTINUE\..\\MIDDLEWARE\\INCLUDE\\" /ZI /nologo /W4 /WX- /diagnostics:classic /Od /Oy- /D WIN32 /D _DEBUG /D _CONSOLE /D _UNICODE /D UNICODE /Gm /EHsc /RTC1 /MDd /GS /fp:precise /Zc:wchar_t /Zc:forScope /Zc:inline /Fo"DEBUG\\" /Fd"DEBUG\VC141.PDB" /Gd /TP /analyze- C:\USERS\WESLEY\DOCUMENTS\VISUAL STUDIO 2017\PROJECTS\LAB4_VECTSPACESHIPSCONTINUE\2DCALCULATOR\MAIN.CPP
^C:\USERS\WESLEY\DOCUMENTS\VISUAL STUDIO 2017\PROJECTS\LAB4_VECTSPACESHIPSCONTINUE\2DCALCULATOR\MATRIXMULTTAB.CPP
/c /I"C:\USERS\WESLEY\DOCUMENTS\VISUAL STUDIO 2017\PROJECTS\LAB4_VECTSPACESHIPSCONTINUE\\\ENGINE\\" /I"C:\USERS\WESLEY\DOCUMENTS\VISUAL STUDIO 2017\PROJECTS\LAB4_VECTSPACESHIPSCONTINUE\..\\MIDDLEWARE\\INCLUDE\\" /ZI /nologo /W4 /WX- /diagnostics:classic /Od /Oy- /D WIN32 /D _DEBUG /D _CONSOLE /D _UNICODE /D UNICODE /Gm /EHsc /RTC1 /MDd /GS /fp:precise /Zc:wchar_t /Zc:forScope /Zc:inline /Fo"DEBUG\\" /Fd"DEBUG\VC141.PDB" /Gd /TP /analyze- C:\USERS\WESLEY\DOCUMENTS\VISUAL STUDIO 2017\PROJECTS\LAB4_VECTSPACESHIPSCONTINUE\2DCALCULATOR\MATRIXMULTTAB.CPP
^C:\USERS\WESLEY\DOCUMENTS\VISUAL STUDIO 2017\PROJECTS\LAB4_VECTSPACESHIPSCONTINUE\2DCALCULATOR\MATRIXTRANSFORMTAB.CPP
/c /I"C:\USERS\WESLEY\DOCUMENTS\VISUAL STUDIO 2017\PROJECTS\LAB4_VECTSPACESHIPSCONTINUE\\\ENGINE\\" /I"C:\USERS\WESLEY\DOCUMENTS\VISUAL STUDIO 2017\PROJECTS\LAB4_VECTSPACESHIPSCONTINUE\..\\MIDDLEWARE\\INCLUDE\\" /ZI /nologo /W4 /WX- /diagnostics:classic /Od /Oy- /D WIN32 /D _DEBUG /D _CONSOLE /D _UNICODE /D UNICODE /Gm /EHsc /RTC1 /MDd /GS /fp:precise /Zc:wchar_t /Zc:forScope /Zc:inline /Fo"DEBUG\\" /Fd"DEBUG\VC141.PDB" /Gd /TP /analyze- C:\USERS\WESLEY\DOCUMENTS\VISUAL STUDIO 2017\PROJECTS\LAB4_VECTSPACESHIPSCONTINUE\2DCALCULATOR\MATRIXTRANSFORMTAB.CPP
^C:\USERS\WESLEY\DOCUMENTS\VISUAL STUDIO 2017\PROJECTS\LAB4_VECTSPACESHIPSCONTINUE\2DCALCULATOR\PERPENDICULARTAB.CPP
/c /I"C:\USERS\WESLEY\DOCUMENTS\VISUAL STUDIO 2017\PROJECTS\LAB4_VECTSPACESHIPSCONTINUE\\\ENGINE\\" /I"C:\USERS\WESLEY\DOCUMENTS\VISUAL STUDIO 2017\PROJECTS\LAB4_VECTSPACESHIPSCONTINUE\..\\MIDDLEWARE\\INCLUDE\\" /ZI /nologo /W4 /WX- /diagnostics:classic /Od /Oy- /D WIN32 /D _DEBUG /D _CONSOLE /D _UNICODE /D UNICODE /Gm /EHsc /RTC1 /MDd /GS /fp:precise /Zc:wchar_t /Zc:forScope /Zc:inline /Fo"DEBUG\\" /Fd"DEBUG\VC141.PDB" /Gd /TP /analyze- C:\USERS\WESLEY\DOCUMENTS\VISUAL STUDIO 2017\PROJECTS\LAB4_VECTSPACESHIPSCONTINUE\2DCALCULATOR\PERPENDICULARTAB.CPP
^C:\USERS\WESLEY\DOCUMENTS\VISUAL STUDIO 2017\PROJECTS\LAB4_VECTSPACESHIPSCONTINUE\2DCALCULATOR\TABMANAGER.CPP
/c /I"C:\USERS\WESLEY\DOCUMENTS\VISUAL STUDIO 2017\PROJECTS\LAB4_VECTSPACESHIPSCONTINUE\\\ENGINE\\" /I"C:\USERS\WESLEY\DOCUMENTS\VISUAL STUDIO 2017\PROJECTS\LAB4_VECTSPACESHIPSCONTINUE\..\\MIDDLEWARE\\INCLUDE\\" /ZI /nologo /W4 /WX- /diagnostics:classic /Od /Oy- /D WIN32 /D _DEBUG /D _CONSOLE /D _UNICODE /D UNICODE /Gm /EHsc /RTC1 /MDd /GS /fp:precise /Zc:wchar_t /Zc:forScope /Zc:inline /Fo"DEBUG\\" /Fd"DEBUG\VC141.PDB" /Gd /TP /analyze- C:\USERS\WESLEY\DOCUMENTS\VISUAL STUDIO 2017\PROJECTS\LAB4_VECTSPACESHIPSCONTINUE\2DCALCULATOR\TABMANAGER.CPP
