^C:\USERS\WESLEY\DOCUMENTS\VISUAL STUDIO 2017\PROJECTS\LAB 02 VECTOR SPACESHIPS\LAB01_2DCALCULATOR\ADDITIONTAB.CPP|C:\USERS\WESLEY\DOCUMENTS\VISUAL STUDIO 2017\PROJECTS\LAB 02 VECTOR SPACESHIPS\LAB01_2DCALCULATOR\DOTTAB.CPP|C:\USERS\WESLEY\DOCUMENTS\VISUAL STUDIO 2017\PROJECTS\LAB 02 VECTOR SPACESHIPS\LAB01_2DCALCULATOR\LERPTAB.CPP|C:\USERS\WESLEY\DOCUMENTS\VISUAL STUDIO 2017\PROJECTS\LAB 02 VECTOR SPACESHIPS\LAB01_2DCALCULATOR\MAIN.CPP|C:\USERS\WESLEY\DOCUMENTS\VISUAL STUDIO 2017\PROJECTS\LAB 02 VECTOR SPACESHIPS\LAB01_2DCALCULATOR\PERPENDICULARTAB.CPP|C:\USERS\WESLEY\DOCUMENTS\VISUAL STUDIO 2017\PROJECTS\LAB 02 VECTOR SPACESHIPS\LAB01_2DCALCULATOR\TABMANAGER.CPP
C:\USERS\WESLEY\DOCUMENTS\VISUAL STUDIO 2017\PROJECTS\LAB 02 VECTOR SPACESHIPS\LAB01_2DCALCULATOR\DEBUG\VC141.PDB
C:\USERS\WESLEY\DOCUMENTS\VISUAL STUDIO 2017\PROJECTS\LAB 02 VECTOR SPACESHIPS\LAB01_2DCALCULATOR\DEBUG\VC141.IDB
C:\USERS\WESLEY\DOCUMENTS\VISUAL STUDIO 2017\PROJECTS\LAB 02 VECTOR SPACESHIPS\LAB01_2DCALCULATOR\DEBUG\ADDITIONTAB.OBJ
C:\USERS\WESLEY\DOCUMENTS\VISUAL STUDIO 2017\PROJECTS\LAB 02 VECTOR SPACESHIPS\LAB01_2DCALCULATOR\DEBUG\DOTTAB.OBJ
C:\USERS\WESLEY\DOCUMENTS\VISUAL STUDIO 2017\PROJECTS\LAB 02 VECTOR SPACESHIPS\LAB01_2DCALCULATOR\DEBUG\LERPTAB.OBJ
C:\USERS\WESLEY\DOCUMENTS\VISUAL STUDIO 2017\PROJECTS\LAB 02 VECTOR SPACESHIPS\LAB01_2DCALCULATOR\DEBUG\MAIN.OBJ
C:\USERS\WESLEY\DOCUMENTS\VISUAL STUDIO 2017\PROJECTS\LAB 02 VECTOR SPACESHIPS\LAB01_2DCALCULATOR\DEBUG\PERPENDICULARTAB.OBJ
C:\USERS\WESLEY\DOCUMENTS\VISUAL STUDIO 2017\PROJECTS\LAB 02 VECTOR SPACESHIPS\LAB01_2DCALCULATOR\DEBUG\TABMANAGER.OBJ
^C:\USERS\WESLEY\DOCUMENTS\VISUAL STUDIO 2017\PROJECTS\LAB 02 VECTOR SPACESHIPS\LAB01_2DCALCULATOR\ADDITIONTAB.CPP
C:\USERS\WESLEY\DOCUMENTS\VISUAL STUDIO 2017\PROJECTS\LAB 02 VECTOR SPACESHIPS\LAB01_2DCALCULATOR\DEBUG\VC141.PDB
^C:\USERS\WESLEY\DOCUMENTS\VISUAL STUDIO 2017\PROJECTS\LAB 02 VECTOR SPACESHIPS\LAB01_2DCALCULATOR\DOTTAB.CPP
C:\USERS\WESLEY\DOCUMENTS\VISUAL STUDIO 2017\PROJECTS\LAB 02 VECTOR SPACESHIPS\LAB01_2DCALCULATOR\DEBUG\VC141.PDB
C:\USERS\WESLEY\DOCUMENTS\VISUAL STUDIO 2017\PROJECTS\LAB 02 VECTOR SPACESHIPS\LAB01_2DCALCULATOR\DEBUG\VC141.IDB
C:\USERS\WESLEY\DOCUMENTS\VISUAL STUDIO 2017\PROJECTS\LAB 02 VECTOR SPACESHIPS\LAB01_2DCALCULATOR\DEBUG\DOTTAB.OBJ
^C:\USERS\WESLEY\DOCUMENTS\VISUAL STUDIO 2017\PROJECTS\LAB 02 VECTOR SPACESHIPS\LAB01_2DCALCULATOR\LERPTAB.CPP
C:\USERS\WESLEY\DOCUMENTS\VISUAL STUDIO 2017\PROJECTS\LAB 02 VECTOR SPACESHIPS\LAB01_2DCALCULATOR\DEBUG\VC141.PDB
C:\USERS\WESLEY\DOCUMENTS\VISUAL STUDIO 2017\PROJECTS\LAB 02 VECTOR SPACESHIPS\LAB01_2DCALCULATOR\DEBUG\VC141.IDB
C:\USERS\WESLEY\DOCUMENTS\VISUAL STUDIO 2017\PROJECTS\LAB 02 VECTOR SPACESHIPS\LAB01_2DCALCULATOR\DEBUG\LERPTAB.OBJ
^C:\USERS\WESLEY\DOCUMENTS\VISUAL STUDIO 2017\PROJECTS\LAB 02 VECTOR SPACESHIPS\LAB01_2DCALCULATOR\MAIN.CPP
C:\USERS\WESLEY\DOCUMENTS\VISUAL STUDIO 2017\PROJECTS\LAB 02 VECTOR SPACESHIPS\LAB01_2DCALCULATOR\DEBUG\VC141.PDB
^C:\USERS\WESLEY\DOCUMENTS\VISUAL STUDIO 2017\PROJECTS\LAB 02 VECTOR SPACESHIPS\LAB01_2DCALCULATOR\PERPENDICULARTAB.CPP
C:\USERS\WESLEY\DOCUMENTS\VISUAL STUDIO 2017\PROJECTS\LAB 02 VECTOR SPACESHIPS\LAB01_2DCALCULATOR\DEBUG\VC141.PDB
^C:\USERS\WESLEY\DOCUMENTS\VISUAL STUDIO 2017\PROJECTS\LAB 02 VECTOR SPACESHIPS\LAB01_2DCALCULATOR\TABMANAGER.CPP
C:\USERS\WESLEY\DOCUMENTS\VISUAL STUDIO 2017\PROJECTS\LAB 02 VECTOR SPACESHIPS\LAB01_2DCALCULATOR\DEBUG\VC141.PDB
^C:\USERS\WESLEY\DOCUMENTS\VISUAL STUDIO 2017\PROJECTS\LAB 02 VECTOR SPACESHIPS\LAB01_2DCALCULATOR\ADDITIONTAB.CPP|C:\USERS\WESLEY\DOCUMENTS\VISUAL STUDIO 2017\PROJECTS\LAB 02 VECTOR SPACESHIPS\LAB01_2DCALCULATOR\DOTTAB.CPP|C:\USERS\WESLEY\DOCUMENTS\VISUAL STUDIO 2017\PROJECTS\LAB 02 VECTOR SPACESHIPS\LAB01_2DCALCULATOR\LERPTAB.CPP|C:\USERS\WESLEY\DOCUMENTS\VISUAL STUDIO 2017\PROJECTS\LAB 02 VECTOR SPACESHIPS\LAB01_2DCALCULATOR\MAIN.CPP|C:\USERS\WESLEY\DOCUMENTS\VISUAL STUDIO 2017\PROJECTS\LAB 02 VECTOR SPACESHIPS\LAB01_2DCALCULATOR\PERPENDICULARTAB.CPP
C:\USERS\WESLEY\DOCUMENTS\VISUAL STUDIO 2017\PROJECTS\LAB 02 VECTOR SPACESHIPS\LAB01_2DCALCULATOR\DEBUG\VC141.PDB
C:\USERS\WESLEY\DOCUMENTS\VISUAL STUDIO 2017\PROJECTS\LAB 02 VECTOR SPACESHIPS\LAB01_2DCALCULATOR\DEBUG\VC141.IDB
C:\USERS\WESLEY\DOCUMENTS\VISUAL STUDIO 2017\PROJECTS\LAB 02 VECTOR SPACESHIPS\LAB01_2DCALCULATOR\DEBUG\DOTTAB.OBJ
