^C:\USERS\WESLEY\DOCUMENTS\VISUAL STUDIO 2017\PROJECTS\LAB01_2DCALCULATOR\DEBUG\ENGINE.LIB|C:\USERS\WESLEY\DOCUMENTS\VISUAL STUDIO 2017\PROJECTS\LAB01_2DCALCULATOR\LAB01_2DCALCULATOR\DEBUG\ADDITIONTAB.OBJ|C:\USERS\WESLEY\DOCUMENTS\VISUAL STUDIO 2017\PROJECTS\LAB01_2DCALCULATOR\LAB01_2DCALCULATOR\DEBUG\DOTTAB.OBJ|C:\USERS\WESLEY\DOCUMENTS\VISUAL STUDIO 2017\PROJECTS\LAB01_2DCALCULATOR\LAB01_2DCALCULATOR\DEBUG\LERPTAB.OBJ|C:\USERS\WESLEY\DOCUMENTS\VISUAL STUDIO 2017\PROJECTS\LAB01_2DCALCULATOR\LAB01_2DCALCULATOR\DEBUG\MAIN.OBJ|C:\USERS\WESLEY\DOCUMENTS\VISUAL STUDIO 2017\PROJECTS\LAB01_2DCALCULATOR\LAB01_2DCALCULATOR\DEBUG\PERPENDICULARTAB.OBJ|C:\USERS\WESLEY\DOCUMENTS\VISUAL STUDIO 2017\PROJECTS\LAB01_2DCALCULATOR\LAB01_2DCALCULATOR\DEBUG\TABMANAGER.OBJ
/OUT:"C:\USERS\WESLEY\DOCUMENTS\VISUAL STUDIO 2017\PROJECTS\LAB01_2DCALCULATOR\DEBUG\LAB01_2DCALCULATOR.EXE" /INCREMENTAL /NOLOGO /LIBPATH:"C:\USERS\WESLEY\DOCUMENTS\VISUAL STUDIO 2017\PROJECTS\LAB01_2DCALCULATOR\DEBUG\\" /LIBPATH:"C:\USERS\WESLEY\DOCUMENTS\VISUAL STUDIO 2017\PROJECTS\LAB01_2DCALCULATOR\..\\MIDDLEWARE\\LIB\\" TWODHARNESS.LIB ENGINE.LIB KERNEL32.LIB USER32.LIB GDI32.LIB WINSPOOL.LIB COMDLG32.LIB ADVAPI32.LIB SHELL32.LIB OLE32.LIB OLEAUT32.LIB UUID.LIB ODBC32.LIB ODBCCP32.LIB /MANIFEST /MANIFESTUAC:"level='asInvoker' uiAccess='false'" /manifest:embed /DEBUG:FASTLINK /PDB:"C:\USERS\WESLEY\DOCUMENTS\VISUAL STUDIO 2017\PROJECTS\LAB01_2DCALCULATOR\DEBUG\LAB01_2DCALCULATOR.PDB" /SUBSYSTEM:CONSOLE /TLBID:1 /DYNAMICBASE /NXCOMPAT /IMPLIB:"C:\USERS\WESLEY\DOCUMENTS\VISUAL STUDIO 2017\PROJECTS\LAB01_2DCALCULATOR\DEBUG\LAB01_2DCALCULATOR.LIB" /MACHINE:X86 DEBUG\ADDITIONTAB.OBJDEBUG\DOTTAB.OBJDEBUG\LERPTAB.OBJDEBUG\MAIN.OBJDEBUG\PERPENDICULARTAB.OBJDEBUG\TABMANAGER.OBJ"C:\USERS\WESLEY\DOCUMENTS\VISUAL STUDIO 2017\PROJECTS\LAB01_2DCALCULATOR\DEBUG\ENGINE.LIB"
^C:\USERS\WESLEY\DOCUMENTS\VISUAL STUDIO 2017\PROJECTS\LAB 02 VECTOR SPACESHIPS\DEBUG\ENGINE.LIB|C:\USERS\WESLEY\DOCUMENTS\VISUAL STUDIO 2017\PROJECTS\LAB 02 VECTOR SPACESHIPS\LAB01_2DCALCULATOR\DEBUG\ADDITIONTAB.OBJ|C:\USERS\WESLEY\DOCUMENTS\VISUAL STUDIO 2017\PROJECTS\LAB 02 VECTOR SPACESHIPS\LAB01_2DCALCULATOR\DEBUG\DOTTAB.OBJ|C:\USERS\WESLEY\DOCUMENTS\VISUAL STUDIO 2017\PROJECTS\LAB 02 VECTOR SPACESHIPS\LAB01_2DCALCULATOR\DEBUG\LERPTAB.OBJ|C:\USERS\WESLEY\DOCUMENTS\VISUAL STUDIO 2017\PROJECTS\LAB 02 VECTOR SPACESHIPS\LAB01_2DCALCULATOR\DEBUG\MAIN.OBJ|C:\USERS\WESLEY\DOCUMENTS\VISUAL STUDIO 2017\PROJECTS\LAB 02 VECTOR SPACESHIPS\LAB01_2DCALCULATOR\DEBUG\PERPENDICULARTAB.OBJ|C:\USERS\WESLEY\DOCUMENTS\VISUAL STUDIO 2017\PROJECTS\LAB 02 VECTOR SPACESHIPS\LAB01_2DCALCULATOR\DEBUG\TABMANAGER.OBJ
/OUT:"C:\USERS\WESLEY\DOCUMENTS\VISUAL STUDIO 2017\PROJECTS\LAB 02 VECTOR SPACESHIPS\DEBUG\LAB01_2DCALCULATOR.EXE" /INCREMENTAL /NOLOGO /LIBPATH:"C:\USERS\WESLEY\DOCUMENTS\VISUAL STUDIO 2017\PROJECTS\LAB 02 VECTOR SPACESHIPS\DEBUG\\" /LIBPATH:"C:\USERS\WESLEY\DOCUMENTS\VISUAL STUDIO 2017\PROJECTS\LAB 02 VECTOR SPACESHIPS\..\\MIDDLEWARE\\LIB\\" TWODHARNESS.LIB ENGINE.LIB KERNEL32.LIB USER32.LIB GDI32.LIB WINSPOOL.LIB COMDLG32.LIB ADVAPI32.LIB SHELL32.LIB OLE32.LIB OLEAUT32.LIB UUID.LIB ODBC32.LIB ODBCCP32.LIB /MANIFEST /MANIFESTUAC:"level='asInvoker' uiAccess='false'" /manifest:embed /DEBUG:FASTLINK /PDB:"C:\USERS\WESLEY\DOCUMENTS\VISUAL STUDIO 2017\PROJECTS\LAB 02 VECTOR SPACESHIPS\DEBUG\LAB01_2DCALCULATOR.PDB" /SUBSYSTEM:CONSOLE /TLBID:1 /DYNAMICBASE /NXCOMPAT /IMPLIB:"C:\USERS\WESLEY\DOCUMENTS\VISUAL STUDIO 2017\PROJECTS\LAB 02 VECTOR SPACESHIPS\DEBUG\LAB01_2DCALCULATOR.LIB" /MACHINE:X86 DEBUG\ADDITIONTAB.OBJDEBUG\DOTTAB.OBJDEBUG\LERPTAB.OBJDEBUG\MAIN.OBJDEBUG\PERPENDICULARTAB.OBJDEBUG\TABMANAGER.OBJ"C:\USERS\WESLEY\DOCUMENTS\VISUAL STUDIO 2017\PROJECTS\LAB 02 VECTOR SPACESHIPS\DEBUG\ENGINE.LIB"
