^C:\USERS\WESLEY\DOCUMENTS\VISUAL STUDIO 2017\PROJECTS\LAB01_2DCALCULATOR\DEBUG\ENGINE.LIB|C:\USERS\WESLEY\DOCUMENTS\VISUAL STUDIO 2017\PROJECTS\LAB01_2DCALCULATOR\LAB01_2DCALCULATOR\DEBUG\ADDITIONTAB.OBJ|C:\USERS\WESLEY\DOCUMENTS\VISUAL STUDIO 2017\PROJECTS\LAB01_2DCALCULATOR\LAB01_2DCALCULATOR\DEBUG\DOTTAB.OBJ|C:\USERS\WESLEY\DOCUMENTS\VISUAL STUDIO 2017\PROJECTS\LAB01_2DCALCULATOR\LAB01_2DCALCULATOR\DEBUG\LERPTAB.OBJ|C:\USERS\WESLEY\DOCUMENTS\VISUAL STUDIO 2017\PROJECTS\LAB01_2DCALCULATOR\LAB01_2DCALCULATOR\DEBUG\MAIN.OBJ|C:\USERS\WESLEY\DOCUMENTS\VISUAL STUDIO 2017\PROJECTS\LAB01_2DCALCULATOR\LAB01_2DCALCULATOR\DEBUG\PERPENDICULARTAB.OBJ|C:\USERS\WESLEY\DOCUMENTS\VISUAL STUDIO 2017\PROJECTS\LAB01_2DCALCULATOR\LAB01_2DCALCULATOR\DEBUG\TABMANAGER.OBJ
C:\USERS\WESLEY\DOCUMENTS\VISUAL STUDIO 2017\PROJECTS\LAB01_2DCALCULATOR\DEBUG\LAB01_2DCALCULATOR.ILK
C:\USERS\WESLEY\DOCUMENTS\VISUAL STUDIO 2017\PROJECTS\LAB01_2DCALCULATOR\DEBUG\LAB01_2DCALCULATOR.EXE
C:\USERS\WESLEY\DOCUMENTS\VISUAL STUDIO 2017\PROJECTS\LAB01_2DCALCULATOR\DEBUG\LAB01_2DCALCULATOR.PDB
^C:\USERS\WESLEY\DOCUMENTS\VISUAL STUDIO 2017\PROJECTS\LAB 02 VECTOR SPACESHIPS\DEBUG\ENGINE.LIB|C:\USERS\WESLEY\DOCUMENTS\VISUAL STUDIO 2017\PROJECTS\LAB 02 VECTOR SPACESHIPS\LAB01_2DCALCULATOR\DEBUG\ADDITIONTAB.OBJ|C:\USERS\WESLEY\DOCUMENTS\VISUAL STUDIO 2017\PROJECTS\LAB 02 VECTOR SPACESHIPS\LAB01_2DCALCULATOR\DEBUG\DOTTAB.OBJ|C:\USERS\WESLEY\DOCUMENTS\VISUAL STUDIO 2017\PROJECTS\LAB 02 VECTOR SPACESHIPS\LAB01_2DCALCULATOR\DEBUG\LERPTAB.OBJ|C:\USERS\WESLEY\DOCUMENTS\VISUAL STUDIO 2017\PROJECTS\LAB 02 VECTOR SPACESHIPS\LAB01_2DCALCULATOR\DEBUG\MAIN.OBJ|C:\USERS\WESLEY\DOCUMENTS\VISUAL STUDIO 2017\PROJECTS\LAB 02 VECTOR SPACESHIPS\LAB01_2DCALCULATOR\DEBUG\PERPENDICULARTAB.OBJ|C:\USERS\WESLEY\DOCUMENTS\VISUAL STUDIO 2017\PROJECTS\LAB 02 VECTOR SPACESHIPS\LAB01_2DCALCULATOR\DEBUG\TABMANAGER.OBJ
C:\USERS\WESLEY\DOCUMENTS\VISUAL STUDIO 2017\PROJECTS\LAB 02 VECTOR SPACESHIPS\DEBUG\LAB01_2DCALCULATOR.ILK
C:\USERS\WESLEY\DOCUMENTS\VISUAL STUDIO 2017\PROJECTS\LAB 02 VECTOR SPACESHIPS\DEBUG\LAB01_2DCALCULATOR.EXE
C:\USERS\WESLEY\DOCUMENTS\VISUAL STUDIO 2017\PROJECTS\LAB 02 VECTOR SPACESHIPS\DEBUG\LAB01_2DCALCULATOR.PDB
