^C:\USERS\WESLEY\DOCUMENTS\VISUAL STUDIO 2017\PROJECTS\LAB4_VECTSPACESHIPSCONTINUE\VECTOR SPACESHIPS\CHAINLINK.CPP
/c /I"C:\USERS\WESLEY\DOCUMENTS\VISUAL STUDIO 2017\PROJECTS\LAB4_VECTSPACESHIPSCONTINUE\..\MIDDLEWARE\CORE\INCLUDE\\" /I"C:\USERS\WESLEY\DOCUMENTS\VISUAL STUDIO 2017\PROJECTS\LAB4_VECTSPACESHIPSCONTINUE\\ENGINE\\" /I"C:\USERS\WESLEY\DOCUMENTS\VISUAL STUDIO 2017\PROJECTS\LAB4_VECTSPACESHIPSCONTINUE\..\MIDDLEWARE\INCLUDE\\" /Zi /nologo /W4 /WX- /diagnostics:classic /O2 /Oi /Oy- /GL /D WIN32 /D NDEBUG /D _CONSOLE /D _UNICODE /D UNICODE /Gm- /EHsc /MD /GS /Gy /fp:precise /Zc:wchar_t /Zc:forScope /Zc:inline /Fo"RELEASE\\" /Fd"RELEASE\VC141.PDB" /Gd /TP /analyze- C:\USERS\WESLEY\DOCUMENTS\VISUAL STUDIO 2017\PROJECTS\LAB4_VECTSPACESHIPSCONTINUE\VECTOR SPACESHIPS\CHAINLINK.CPP
^C:\USERS\WESLEY\DOCUMENTS\VISUAL STUDIO 2017\PROJECTS\LAB4_VECTSPACESHIPSCONTINUE\VECTOR SPACESHIPS\ENEMY.CPP
/c /I"C:\USERS\WESLEY\DOCUMENTS\VISUAL STUDIO 2017\PROJECTS\LAB4_VECTSPACESHIPSCONTINUE\..\MIDDLEWARE\CORE\INCLUDE\\" /I"C:\USERS\WESLEY\DOCUMENTS\VISUAL STUDIO 2017\PROJECTS\LAB4_VECTSPACESHIPSCONTINUE\\ENGINE\\" /I"C:\USERS\WESLEY\DOCUMENTS\VISUAL STUDIO 2017\PROJECTS\LAB4_VECTSPACESHIPSCONTINUE\..\MIDDLEWARE\INCLUDE\\" /Zi /nologo /W4 /WX- /diagnostics:classic /O2 /Oi /Oy- /GL /D WIN32 /D NDEBUG /D _CONSOLE /D _UNICODE /D UNICODE /Gm- /EHsc /MD /GS /Gy /fp:precise /Zc:wchar_t /Zc:forScope /Zc:inline /Fo"RELEASE\\" /Fd"RELEASE\VC141.PDB" /Gd /TP /analyze- C:\USERS\WESLEY\DOCUMENTS\VISUAL STUDIO 2017\PROJECTS\LAB4_VECTSPACESHIPSCONTINUE\VECTOR SPACESHIPS\ENEMY.CPP
^C:\USERS\WESLEY\DOCUMENTS\VISUAL STUDIO 2017\PROJECTS\LAB4_VECTSPACESHIPSCONTINUE\VECTOR SPACESHIPS\MIDBOSS.CPP
/c /I"C:\USERS\WESLEY\DOCUMENTS\VISUAL STUDIO 2017\PROJECTS\LAB4_VECTSPACESHIPSCONTINUE\..\MIDDLEWARE\CORE\INCLUDE\\" /I"C:\USERS\WESLEY\DOCUMENTS\VISUAL STUDIO 2017\PROJECTS\LAB4_VECTSPACESHIPSCONTINUE\\ENGINE\\" /I"C:\USERS\WESLEY\DOCUMENTS\VISUAL STUDIO 2017\PROJECTS\LAB4_VECTSPACESHIPSCONTINUE\..\MIDDLEWARE\INCLUDE\\" /Zi /nologo /W4 /WX- /diagnostics:classic /O2 /Oi /Oy- /GL /D WIN32 /D NDEBUG /D _CONSOLE /D _UNICODE /D UNICODE /Gm- /EHsc /MD /GS /Gy /fp:precise /Zc:wchar_t /Zc:forScope /Zc:inline /Fo"RELEASE\\" /Fd"RELEASE\VC141.PDB" /Gd /TP /analyze- C:\USERS\WESLEY\DOCUMENTS\VISUAL STUDIO 2017\PROJECTS\LAB4_VECTSPACESHIPSCONTINUE\VECTOR SPACESHIPS\MIDBOSS.CPP
^C:\USERS\WESLEY\DOCUMENTS\VISUAL STUDIO 2017\PROJECTS\LAB4_VECTSPACESHIPSCONTINUE\VECTOR SPACESHIPS\OBJECTFACTORY.CPP
/c /I"C:\USERS\WESLEY\DOCUMENTS\VISUAL STUDIO 2017\PROJECTS\LAB4_VECTSPACESHIPSCONTINUE\..\MIDDLEWARE\CORE\INCLUDE\\" /I"C:\USERS\WESLEY\DOCUMENTS\VISUAL STUDIO 2017\PROJECTS\LAB4_VECTSPACESHIPSCONTINUE\\ENGINE\\" /I"C:\USERS\WESLEY\DOCUMENTS\VISUAL STUDIO 2017\PROJECTS\LAB4_VECTSPACESHIPSCONTINUE\..\MIDDLEWARE\INCLUDE\\" /Zi /nologo /W4 /WX- /diagnostics:classic /O2 /Oi /Oy- /GL /D WIN32 /D NDEBUG /D _CONSOLE /D _UNICODE /D UNICODE /Gm- /EHsc /MD /GS /Gy /fp:precise /Zc:wchar_t /Zc:forScope /Zc:inline /Fo"RELEASE\\" /Fd"RELEASE\VC141.PDB" /Gd /TP /analyze- C:\USERS\WESLEY\DOCUMENTS\VISUAL STUDIO 2017\PROJECTS\LAB4_VECTSPACESHIPSCONTINUE\VECTOR SPACESHIPS\OBJECTFACTORY.CPP
^C:\USERS\WESLEY\DOCUMENTS\VISUAL STUDIO 2017\PROJECTS\LAB4_VECTSPACESHIPSCONTINUE\VECTOR SPACESHIPS\PATROLSHIP.CPP
/c /I"C:\USERS\WESLEY\DOCUMENTS\VISUAL STUDIO 2017\PROJECTS\LAB4_VECTSPACESHIPSCONTINUE\..\MIDDLEWARE\CORE\INCLUDE\\" /I"C:\USERS\WESLEY\DOCUMENTS\VISUAL STUDIO 2017\PROJECTS\LAB4_VECTSPACESHIPSCONTINUE\\ENGINE\\" /I"C:\USERS\WESLEY\DOCUMENTS\VISUAL STUDIO 2017\PROJECTS\LAB4_VECTSPACESHIPSCONTINUE\..\MIDDLEWARE\INCLUDE\\" /Zi /nologo /W4 /WX- /diagnostics:classic /O2 /Oi /Oy- /GL /D WIN32 /D NDEBUG /D _CONSOLE /D _UNICODE /D UNICODE /Gm- /EHsc /MD /GS /Gy /fp:precise /Zc:wchar_t /Zc:forScope /Zc:inline /Fo"RELEASE\\" /Fd"RELEASE\VC141.PDB" /Gd /TP /analyze- C:\USERS\WESLEY\DOCUMENTS\VISUAL STUDIO 2017\PROJECTS\LAB4_VECTSPACESHIPSCONTINUE\VECTOR SPACESHIPS\PATROLSHIP.CPP
^C:\USERS\WESLEY\DOCUMENTS\VISUAL STUDIO 2017\PROJECTS\LAB4_VECTSPACESHIPSCONTINUE\VECTOR SPACESHIPS\PLAYERINPUT.CPP
/c /I"C:\USERS\WESLEY\DOCUMENTS\VISUAL STUDIO 2017\PROJECTS\LAB4_VECTSPACESHIPSCONTINUE\..\MIDDLEWARE\CORE\INCLUDE\\" /I"C:\USERS\WESLEY\DOCUMENTS\VISUAL STUDIO 2017\PROJECTS\LAB4_VECTSPACESHIPSCONTINUE\\ENGINE\\" /I"C:\USERS\WESLEY\DOCUMENTS\VISUAL STUDIO 2017\PROJECTS\LAB4_VECTSPACESHIPSCONTINUE\..\MIDDLEWARE\INCLUDE\\" /Zi /nologo /W4 /WX- /diagnostics:classic /O2 /Oi /Oy- /GL /D WIN32 /D NDEBUG /D _CONSOLE /D _UNICODE /D UNICODE /Gm- /EHsc /MD /GS /Gy /fp:precise /Zc:wchar_t /Zc:forScope /Zc:inline /Fo"RELEASE\\" /Fd"RELEASE\VC141.PDB" /Gd /TP /analyze- C:\USERS\WESLEY\DOCUMENTS\VISUAL STUDIO 2017\PROJECTS\LAB4_VECTSPACESHIPSCONTINUE\VECTOR SPACESHIPS\PLAYERINPUT.CPP
^C:\USERS\WESLEY\DOCUMENTS\VISUAL STUDIO 2017\PROJECTS\LAB4_VECTSPACESHIPSCONTINUE\VECTOR SPACESHIPS\SHIP.CPP
/c /I"C:\USERS\WESLEY\DOCUMENTS\VISUAL STUDIO 2017\PROJECTS\LAB4_VECTSPACESHIPSCONTINUE\..\MIDDLEWARE\CORE\INCLUDE\\" /I"C:\USERS\WESLEY\DOCUMENTS\VISUAL STUDIO 2017\PROJECTS\LAB4_VECTSPACESHIPSCONTINUE\\ENGINE\\" /I"C:\USERS\WESLEY\DOCUMENTS\VISUAL STUDIO 2017\PROJECTS\LAB4_VECTSPACESHIPSCONTINUE\..\MIDDLEWARE\INCLUDE\\" /Zi /nologo /W4 /WX- /diagnostics:classic /O2 /Oi /Oy- /GL /D WIN32 /D NDEBUG /D _CONSOLE /D _UNICODE /D UNICODE /Gm- /EHsc /MD /GS /Gy /fp:precise /Zc:wchar_t /Zc:forScope /Zc:inline /Fo"RELEASE\\" /Fd"RELEASE\VC141.PDB" /Gd /TP /analyze- C:\USERS\WESLEY\DOCUMENTS\VISUAL STUDIO 2017\PROJECTS\LAB4_VECTSPACESHIPSCONTINUE\VECTOR SPACESHIPS\SHIP.CPP
^C:\USERS\WESLEY\DOCUMENTS\VISUAL STUDIO 2017\PROJECTS\LAB4_VECTSPACESHIPSCONTINUE\VECTOR SPACESHIPS\WALL.CPP
/c /I"C:\USERS\WESLEY\DOCUMENTS\VISUAL STUDIO 2017\PROJECTS\LAB4_VECTSPACESHIPSCONTINUE\..\MIDDLEWARE\CORE\INCLUDE\\" /I"C:\USERS\WESLEY\DOCUMENTS\VISUAL STUDIO 2017\PROJECTS\LAB4_VECTSPACESHIPSCONTINUE\\ENGINE\\" /I"C:\USERS\WESLEY\DOCUMENTS\VISUAL STUDIO 2017\PROJECTS\LAB4_VECTSPACESHIPSCONTINUE\..\MIDDLEWARE\INCLUDE\\" /Zi /nologo /W4 /WX- /diagnostics:classic /O2 /Oi /Oy- /GL /D WIN32 /D NDEBUG /D _CONSOLE /D _UNICODE /D UNICODE /Gm- /EHsc /MD /GS /Gy /fp:precise /Zc:wchar_t /Zc:forScope /Zc:inline /Fo"RELEASE\\" /Fd"RELEASE\VC141.PDB" /Gd /TP /analyze- C:\USERS\WESLEY\DOCUMENTS\VISUAL STUDIO 2017\PROJECTS\LAB4_VECTSPACESHIPSCONTINUE\VECTOR SPACESHIPS\WALL.CPP
^C:\USERS\WESLEY\DOCUMENTS\VISUAL STUDIO 2017\PROJECTS\LAB4_VECTSPACESHIPSCONTINUE\VECTOR SPACESHIPS\CAMERA.CPP
/c /I"C:\USERS\WESLEY\DOCUMENTS\VISUAL STUDIO 2017\PROJECTS\LAB4_VECTSPACESHIPSCONTINUE\..\MIDDLEWARE\CORE\INCLUDE\\" /I"C:\USERS\WESLEY\DOCUMENTS\VISUAL STUDIO 2017\PROJECTS\LAB4_VECTSPACESHIPSCONTINUE\\ENGINE\\" /I"C:\USERS\WESLEY\DOCUMENTS\VISUAL STUDIO 2017\PROJECTS\LAB4_VECTSPACESHIPSCONTINUE\..\MIDDLEWARE\INCLUDE\\" /Zi /nologo /W4 /WX- /diagnostics:classic /O2 /Oi /Oy- /GL /D WIN32 /D NDEBUG /D _CONSOLE /D _UNICODE /D UNICODE /Gm- /EHsc /MD /GS /Gy /fp:precise /Zc:wchar_t /Zc:forScope /Zc:inline /Fo"RELEASE\\" /Fd"RELEASE\VC141.PDB" /Gd /TP /analyze- C:\USERS\WESLEY\DOCUMENTS\VISUAL STUDIO 2017\PROJECTS\LAB4_VECTSPACESHIPSCONTINUE\VECTOR SPACESHIPS\CAMERA.CPP
^C:\USERS\WESLEY\DOCUMENTS\VISUAL STUDIO 2017\PROJECTS\LAB4_VECTSPACESHIPSCONTINUE\VECTOR SPACESHIPS\GAMEOBJECT.CPP
/c /I"C:\USERS\WESLEY\DOCUMENTS\VISUAL STUDIO 2017\PROJECTS\LAB4_VECTSPACESHIPSCONTINUE\..\MIDDLEWARE\CORE\INCLUDE\\" /I"C:\USERS\WESLEY\DOCUMENTS\VISUAL STUDIO 2017\PROJECTS\LAB4_VECTSPACESHIPSCONTINUE\\ENGINE\\" /I"C:\USERS\WESLEY\DOCUMENTS\VISUAL STUDIO 2017\PROJECTS\LAB4_VECTSPACESHIPSCONTINUE\..\MIDDLEWARE\INCLUDE\\" /Zi /nologo /W4 /WX- /diagnostics:classic /O2 /Oi /Oy- /GL /D WIN32 /D NDEBUG /D _CONSOLE /D _UNICODE /D UNICODE /Gm- /EHsc /MD /GS /Gy /fp:precise /Zc:wchar_t /Zc:forScope /Zc:inline /Fo"RELEASE\\" /Fd"RELEASE\VC141.PDB" /Gd /TP /analyze- C:\USERS\WESLEY\DOCUMENTS\VISUAL STUDIO 2017\PROJECTS\LAB4_VECTSPACESHIPSCONTINUE\VECTOR SPACESHIPS\GAMEOBJECT.CPP
^C:\USERS\WESLEY\DOCUMENTS\VISUAL STUDIO 2017\PROJECTS\LAB4_VECTSPACESHIPSCONTINUE\VECTOR SPACESHIPS\LINK.CPP
/c /I"C:\USERS\WESLEY\DOCUMENTS\VISUAL STUDIO 2017\PROJECTS\LAB4_VECTSPACESHIPSCONTINUE\..\MIDDLEWARE\CORE\INCLUDE\\" /I"C:\USERS\WESLEY\DOCUMENTS\VISUAL STUDIO 2017\PROJECTS\LAB4_VECTSPACESHIPSCONTINUE\\ENGINE\\" /I"C:\USERS\WESLEY\DOCUMENTS\VISUAL STUDIO 2017\PROJECTS\LAB4_VECTSPACESHIPSCONTINUE\..\MIDDLEWARE\INCLUDE\\" /Zi /nologo /W4 /WX- /diagnostics:classic /O2 /Oi /Oy- /GL /D WIN32 /D NDEBUG /D _CONSOLE /D _UNICODE /D UNICODE /Gm- /EHsc /MD /GS /Gy /fp:precise /Zc:wchar_t /Zc:forScope /Zc:inline /Fo"RELEASE\\" /Fd"RELEASE\VC141.PDB" /Gd /TP /analyze- C:\USERS\WESLEY\DOCUMENTS\VISUAL STUDIO 2017\PROJECTS\LAB4_VECTSPACESHIPSCONTINUE\VECTOR SPACESHIPS\LINK.CPP
^C:\USERS\WESLEY\DOCUMENTS\VISUAL STUDIO 2017\PROJECTS\LAB4_VECTSPACESHIPSCONTINUE\VECTOR SPACESHIPS\MISILE.CPP
/c /I"C:\USERS\WESLEY\DOCUMENTS\VISUAL STUDIO 2017\PROJECTS\LAB4_VECTSPACESHIPSCONTINUE\..\MIDDLEWARE\CORE\INCLUDE\\" /I"C:\USERS\WESLEY\DOCUMENTS\VISUAL STUDIO 2017\PROJECTS\LAB4_VECTSPACESHIPSCONTINUE\\ENGINE\\" /I"C:\USERS\WESLEY\DOCUMENTS\VISUAL STUDIO 2017\PROJECTS\LAB4_VECTSPACESHIPSCONTINUE\..\MIDDLEWARE\INCLUDE\\" /Zi /nologo /W4 /WX- /diagnostics:classic /O2 /Oi /Oy- /GL /D WIN32 /D NDEBUG /D _CONSOLE /D _UNICODE /D UNICODE /Gm- /EHsc /MD /GS /Gy /fp:precise /Zc:wchar_t /Zc:forScope /Zc:inline /Fo"RELEASE\\" /Fd"RELEASE\VC141.PDB" /Gd /TP /analyze- C:\USERS\WESLEY\DOCUMENTS\VISUAL STUDIO 2017\PROJECTS\LAB4_VECTSPACESHIPSCONTINUE\VECTOR SPACESHIPS\MISILE.CPP
^C:\USERS\WESLEY\DOCUMENTS\VISUAL STUDIO 2017\PROJECTS\LAB4_VECTSPACESHIPSCONTINUE\VECTOR SPACESHIPS\MISILEMANAGER.CPP
/c /I"C:\USERS\WESLEY\DOCUMENTS\VISUAL STUDIO 2017\PROJECTS\LAB4_VECTSPACESHIPSCONTINUE\..\MIDDLEWARE\CORE\INCLUDE\\" /I"C:\USERS\WESLEY\DOCUMENTS\VISUAL STUDIO 2017\PROJECTS\LAB4_VECTSPACESHIPSCONTINUE\\ENGINE\\" /I"C:\USERS\WESLEY\DOCUMENTS\VISUAL STUDIO 2017\PROJECTS\LAB4_VECTSPACESHIPSCONTINUE\..\MIDDLEWARE\INCLUDE\\" /Zi /nologo /W4 /WX- /diagnostics:classic /O2 /Oi /Oy- /GL /D WIN32 /D NDEBUG /D _CONSOLE /D _UNICODE /D UNICODE /Gm- /EHsc /MD /GS /Gy /fp:precise /Zc:wchar_t /Zc:forScope /Zc:inline /Fo"RELEASE\\" /Fd"RELEASE\VC141.PDB" /Gd /TP /analyze- C:\USERS\WESLEY\DOCUMENTS\VISUAL STUDIO 2017\PROJECTS\LAB4_VECTSPACESHIPSCONTINUE\VECTOR SPACESHIPS\MISILEMANAGER.CPP
^C:\USERS\WESLEY\DOCUMENTS\VISUAL STUDIO 2017\PROJECTS\LAB4_VECTSPACESHIPSCONTINUE\VECTOR SPACESHIPS\OBJECTMANAGER.CPP
/c /I"C:\USERS\WESLEY\DOCUMENTS\VISUAL STUDIO 2017\PROJECTS\LAB4_VECTSPACESHIPSCONTINUE\..\MIDDLEWARE\CORE\INCLUDE\\" /I"C:\USERS\WESLEY\DOCUMENTS\VISUAL STUDIO 2017\PROJECTS\LAB4_VECTSPACESHIPSCONTINUE\\ENGINE\\" /I"C:\USERS\WESLEY\DOCUMENTS\VISUAL STUDIO 2017\PROJECTS\LAB4_VECTSPACESHIPSCONTINUE\..\MIDDLEWARE\INCLUDE\\" /Zi /nologo /W4 /WX- /diagnostics:classic /O2 /Oi /Oy- /GL /D WIN32 /D NDEBUG /D _CONSOLE /D _UNICODE /D UNICODE /Gm- /EHsc /MD /GS /Gy /fp:precise /Zc:wchar_t /Zc:forScope /Zc:inline /Fo"RELEASE\\" /Fd"RELEASE\VC141.PDB" /Gd /TP /analyze- C:\USERS\WESLEY\DOCUMENTS\VISUAL STUDIO 2017\PROJECTS\LAB4_VECTSPACESHIPSCONTINUE\VECTOR SPACESHIPS\OBJECTMANAGER.CPP
^C:\USERS\WESLEY\DOCUMENTS\VISUAL STUDIO 2017\PROJECTS\LAB4_VECTSPACESHIPSCONTINUE\VECTOR SPACESHIPS\SHAPE.CPP
/c /I"C:\USERS\WESLEY\DOCUMENTS\VISUAL STUDIO 2017\PROJECTS\LAB4_VECTSPACESHIPSCONTINUE\..\MIDDLEWARE\CORE\INCLUDE\\" /I"C:\USERS\WESLEY\DOCUMENTS\VISUAL STUDIO 2017\PROJECTS\LAB4_VECTSPACESHIPSCONTINUE\\ENGINE\\" /I"C:\USERS\WESLEY\DOCUMENTS\VISUAL STUDIO 2017\PROJECTS\LAB4_VECTSPACESHIPSCONTINUE\..\MIDDLEWARE\INCLUDE\\" /Zi /nologo /W4 /WX- /diagnostics:classic /O2 /Oi /Oy- /GL /D WIN32 /D NDEBUG /D _CONSOLE /D _UNICODE /D UNICODE /Gm- /EHsc /MD /GS /Gy /fp:precise /Zc:wchar_t /Zc:forScope /Zc:inline /Fo"RELEASE\\" /Fd"RELEASE\VC141.PDB" /Gd /TP /analyze- C:\USERS\WESLEY\DOCUMENTS\VISUAL STUDIO 2017\PROJECTS\LAB4_VECTSPACESHIPSCONTINUE\VECTOR SPACESHIPS\SHAPE.CPP
^C:\USERS\WESLEY\DOCUMENTS\VISUAL STUDIO 2017\PROJECTS\LAB4_VECTSPACESHIPSCONTINUE\VECTOR SPACESHIPS\TURRET.CPP
/c /I"C:\USERS\WESLEY\DOCUMENTS\VISUAL STUDIO 2017\PROJECTS\LAB4_VECTSPACESHIPSCONTINUE\..\MIDDLEWARE\CORE\INCLUDE\\" /I"C:\USERS\WESLEY\DOCUMENTS\VISUAL STUDIO 2017\PROJECTS\LAB4_VECTSPACESHIPSCONTINUE\\ENGINE\\" /I"C:\USERS\WESLEY\DOCUMENTS\VISUAL STUDIO 2017\PROJECTS\LAB4_VECTSPACESHIPSCONTINUE\..\MIDDLEWARE\INCLUDE\\" /Zi /nologo /W4 /WX- /diagnostics:classic /O2 /Oi /Oy- /GL /D WIN32 /D NDEBUG /D _CONSOLE /D _UNICODE /D UNICODE /Gm- /EHsc /MD /GS /Gy /fp:precise /Zc:wchar_t /Zc:forScope /Zc:inline /Fo"RELEASE\\" /Fd"RELEASE\VC141.PDB" /Gd /TP /analyze- C:\USERS\WESLEY\DOCUMENTS\VISUAL STUDIO 2017\PROJECTS\LAB4_VECTSPACESHIPSCONTINUE\VECTOR SPACESHIPS\TURRET.CPP
^C:\USERS\WESLEY\DOCUMENTS\VISUAL STUDIO 2017\PROJECTS\LAB4_VECTSPACESHIPSCONTINUE\VECTOR SPACESHIPS\FPSUI.CPP
/c /I"C:\USERS\WESLEY\DOCUMENTS\VISUAL STUDIO 2017\PROJECTS\LAB4_VECTSPACESHIPSCONTINUE\..\MIDDLEWARE\CORE\INCLUDE\\" /I"C:\USERS\WESLEY\DOCUMENTS\VISUAL STUDIO 2017\PROJECTS\LAB4_VECTSPACESHIPSCONTINUE\\ENGINE\\" /I"C:\USERS\WESLEY\DOCUMENTS\VISUAL STUDIO 2017\PROJECTS\LAB4_VECTSPACESHIPSCONTINUE\..\MIDDLEWARE\INCLUDE\\" /Zi /nologo /W4 /WX- /diagnostics:classic /O2 /Oi /Oy- /GL /D WIN32 /D NDEBUG /D _CONSOLE /D _UNICODE /D UNICODE /Gm- /EHsc /MD /GS /Gy /fp:precise /Zc:wchar_t /Zc:forScope /Zc:inline /Fo"RELEASE\\" /Fd"RELEASE\VC141.PDB" /Gd /TP /analyze- C:\USERS\WESLEY\DOCUMENTS\VISUAL STUDIO 2017\PROJECTS\LAB4_VECTSPACESHIPSCONTINUE\VECTOR SPACESHIPS\FPSUI.CPP
^C:\USERS\WESLEY\DOCUMENTS\VISUAL STUDIO 2017\PROJECTS\LAB4_VECTSPACESHIPSCONTINUE\VECTOR SPACESHIPS\MAIN.CPP
/c /I"C:\USERS\WESLEY\DOCUMENTS\VISUAL STUDIO 2017\PROJECTS\LAB4_VECTSPACESHIPSCONTINUE\..\MIDDLEWARE\CORE\INCLUDE\\" /I"C:\USERS\WESLEY\DOCUMENTS\VISUAL STUDIO 2017\PROJECTS\LAB4_VECTSPACESHIPSCONTINUE\\ENGINE\\" /I"C:\USERS\WESLEY\DOCUMENTS\VISUAL STUDIO 2017\PROJECTS\LAB4_VECTSPACESHIPSCONTINUE\..\MIDDLEWARE\INCLUDE\\" /Zi /nologo /W4 /WX- /diagnostics:classic /O2 /Oi /Oy- /GL /D WIN32 /D NDEBUG /D _CONSOLE /D _UNICODE /D UNICODE /Gm- /EHsc /MD /GS /Gy /fp:precise /Zc:wchar_t /Zc:forScope /Zc:inline /Fo"RELEASE\\" /Fd"RELEASE\VC141.PDB" /Gd /TP /analyze- C:\USERS\WESLEY\DOCUMENTS\VISUAL STUDIO 2017\PROJECTS\LAB4_VECTSPACESHIPSCONTINUE\VECTOR SPACESHIPS\MAIN.CPP
^C:\USERS\WESLEY\DOCUMENTS\VISUAL STUDIO 2017\PROJECTS\LAB4_VECTSPACESHIPSCONTINUE\VECTOR SPACESHIPS\GAMEMANAGER.CPP
/c /I"C:\USERS\WESLEY\DOCUMENTS\VISUAL STUDIO 2017\PROJECTS\LAB4_VECTSPACESHIPSCONTINUE\..\MIDDLEWARE\CORE\INCLUDE\\" /I"C:\USERS\WESLEY\DOCUMENTS\VISUAL STUDIO 2017\PROJECTS\LAB4_VECTSPACESHIPSCONTINUE\\ENGINE\\" /I"C:\USERS\WESLEY\DOCUMENTS\VISUAL STUDIO 2017\PROJECTS\LAB4_VECTSPACESHIPSCONTINUE\..\MIDDLEWARE\INCLUDE\\" /Zi /nologo /W4 /WX- /diagnostics:classic /O2 /Oi /Oy- /GL /D WIN32 /D NDEBUG /D _CONSOLE /D _UNICODE /D UNICODE /Gm- /EHsc /MD /GS /Gy /fp:precise /Zc:wchar_t /Zc:forScope /Zc:inline /Fo"RELEASE\\" /Fd"RELEASE\VC141.PDB" /Gd /TP /analyze- C:\USERS\WESLEY\DOCUMENTS\VISUAL STUDIO 2017\PROJECTS\LAB4_VECTSPACESHIPSCONTINUE\VECTOR SPACESHIPS\GAMEMANAGER.CPP
