^c:\Users\Wesley\documents\visual studio 2017\Projects\Lab01_2DCalculator\Lab01_2DCalculator\Lab01_2DCalculator.vcxproj
c:\users\wesley\documents\visual studio 2017\Projects\Lab01_2DCalculator\Debug\Lab01_2DCalculator.lib
c:\users\wesley\documents\visual studio 2017\Projects\Lab01_2DCalculator\Debug\Lab01_2DCalculator.exp
^C:\Users\Wesley\documents\visual studio 2017\Projects\Lab01_2DCalculator\Lab01_2DCalculator\Lab01_2DCalculator.vcxproj
C:\Users\Wesley\documents\visual studio 2017\Projects\Lab01_2DCalculator\Debug\Lab01_2DCalculator.lib
C:\Users\Wesley\documents\visual studio 2017\Projects\Lab01_2DCalculator\Debug\Lab01_2DCalculator.exp
^C:\Users\Wesley\documents\visual studio 2017\Projects\Lab01_2DCalculator\Lab01_2DCalculator\Lab01_2DCalculator.vcxproj
C:\Users\Wesley\documents\visual studio 2017\Projects\Lab01_2DCalculator\Debug\Lab01_2DCalculator.lib
C:\Users\Wesley\documents\visual studio 2017\Projects\Lab01_2DCalculator\Debug\Lab01_2DCalculator.exp
^C:\Users\Wesley\documents\visual studio 2017\Projects\Lab01_2DCalculator\Lab01_2DCalculator\Lab01_2DCalculator.vcxproj
C:\Users\Wesley\documents\visual studio 2017\Projects\Lab01_2DCalculator\Debug\Lab01_2DCalculator.lib
C:\Users\Wesley\documents\visual studio 2017\Projects\Lab01_2DCalculator\Debug\Lab01_2DCalculator.exp
^C:\Users\Wesley\documents\visual studio 2017\Projects\Lab01_2DCalculator\Lab01_2DCalculator\Lab01_2DCalculator.vcxproj
C:\Users\Wesley\documents\visual studio 2017\Projects\Lab01_2DCalculator\Debug\Lab01_2DCalculator.lib
C:\Users\Wesley\documents\visual studio 2017\Projects\Lab01_2DCalculator\Debug\Lab01_2DCalculator.exp
^C:\Users\Wesley\documents\visual studio 2017\Projects\Lab01_2DCalculator\Lab01_2DCalculator\Lab01_2DCalculator.vcxproj
C:\Users\Wesley\documents\visual studio 2017\Projects\Lab01_2DCalculator\Debug\Lab01_2DCalculator.lib
C:\Users\Wesley\documents\visual studio 2017\Projects\Lab01_2DCalculator\Debug\Lab01_2DCalculator.exp
