^C:\USERS\WESLEY\DOCUMENTS\VISUAL STUDIO 2017\PROJECTS\LAB3_2DCALCULATOR PRT 2\2DCALCULATOR\DEBUG\ADDITIONTAB.OBJ|C:\USERS\WESLEY\DOCUMENTS\VISUAL STUDIO 2017\PROJECTS\LAB3_2DCALCULATOR PRT 2\2DCALCULATOR\DEBUG\AFFINETRANSFORMTAB.OBJ|C:\USERS\WESLEY\DOCUMENTS\VISUAL STUDIO 2017\PROJECTS\LAB3_2DCALCULATOR PRT 2\2DCALCULATOR\DEBUG\DOTTAB.OBJ|C:\USERS\WESLEY\DOCUMENTS\VISUAL STUDIO 2017\PROJECTS\LAB3_2DCALCULATOR PRT 2\2DCALCULATOR\DEBUG\LERPTAB.OBJ|C:\USERS\WESLEY\DOCUMENTS\VISUAL STUDIO 2017\PROJECTS\LAB3_2DCALCULATOR PRT 2\2DCALCULATOR\DEBUG\MAIN.OBJ|C:\USERS\WESLEY\DOCUMENTS\VISUAL STUDIO 2017\PROJECTS\LAB3_2DCALCULATOR PRT 2\2DCALCULATOR\DEBUG\MATRIXMULTTAB.OBJ|C:\USERS\WESLEY\DOCUMENTS\VISUAL STUDIO 2017\PROJECTS\LAB3_2DCALCULATOR PRT 2\2DCALCULATOR\DEBUG\MATRIXTRANSFORMTAB.OBJ|C:\USERS\WESLEY\DOCUMENTS\VISUAL STUDIO 2017\PROJECTS\LAB3_2DCALCULATOR PRT 2\2DCALCULATOR\DEBUG\PERPENDICULARTAB.OBJ|C:\USERS\WESLEY\DOCUMENTS\VISUAL STUDIO 2017\PROJECTS\LAB3_2DCALCULATOR PRT 2\2DCALCULATOR\DEBUG\TABMANAGER.OBJ|C:\USERS\WESLEY\DOCUMENTS\VISUAL STUDIO 2017\PROJECTS\LAB3_2DCALCULATOR PRT 2\DEBUG\ENGINE.LIB
C:\USERS\WESLEY\DOCUMENTS\VISUAL STUDIO 2017\PROJECTS\LAB3_2DCALCULATOR PRT 2\DEBUG\2DCALCULATOR.ILK
C:\USERS\WESLEY\DOCUMENTS\VISUAL STUDIO 2017\PROJECTS\LAB3_2DCALCULATOR PRT 2\DEBUG\2DCALCULATOR.EXE
C:\USERS\WESLEY\DOCUMENTS\VISUAL STUDIO 2017\PROJECTS\LAB3_2DCALCULATOR PRT 2\DEBUG\2DCALCULATOR.PDB
