^C:\USERS\WESLEY\DOCUMENTS\VISUAL STUDIO 2017\PROJECTS\LAB4_VECTSPACESHIPSCONTINUE\ENGINE\ENGINE.CPP|C:\USERS\WESLEY\DOCUMENTS\VISUAL STUDIO 2017\PROJECTS\LAB4_VECTSPACESHIPSCONTINUE\ENGINE\MAT2.CPP|C:\USERS\WESLEY\DOCUMENTS\VISUAL STUDIO 2017\PROJECTS\LAB4_VECTSPACESHIPSCONTINUE\ENGINE\MAT3.CPP|C:\USERS\WESLEY\DOCUMENTS\VISUAL STUDIO 2017\PROJECTS\LAB4_VECTSPACESHIPSCONTINUE\ENGINE\VEC2.CPP
C:\USERS\WESLEY\DOCUMENTS\VISUAL STUDIO 2017\PROJECTS\LAB4_VECTSPACESHIPSCONTINUE\ENGINE\RELEASE\VC141.PDB
C:\USERS\WESLEY\DOCUMENTS\VISUAL STUDIO 2017\PROJECTS\LAB4_VECTSPACESHIPSCONTINUE\ENGINE\RELEASE\VEC2.OBJ
C:\USERS\WESLEY\DOCUMENTS\VISUAL STUDIO 2017\PROJECTS\LAB4_VECTSPACESHIPSCONTINUE\ENGINE\RELEASE\MAT3.OBJ
C:\USERS\WESLEY\DOCUMENTS\VISUAL STUDIO 2017\PROJECTS\LAB4_VECTSPACESHIPSCONTINUE\ENGINE\RELEASE\MAT2.OBJ
C:\USERS\WESLEY\DOCUMENTS\VISUAL STUDIO 2017\PROJECTS\LAB4_VECTSPACESHIPSCONTINUE\ENGINE\RELEASE\ENGINE.OBJ
^C:\USERS\WESLEY\DOCUMENTS\VISUAL STUDIO 2017\PROJECTS\LAB4_VECTSPACESHIPSCONTINUE\ENGINE\ENGINE.CPP
C:\USERS\WESLEY\DOCUMENTS\VISUAL STUDIO 2017\PROJECTS\LAB4_VECTSPACESHIPSCONTINUE\ENGINE\RELEASE\VC141.PDB
^C:\USERS\WESLEY\DOCUMENTS\VISUAL STUDIO 2017\PROJECTS\LAB4_VECTSPACESHIPSCONTINUE\ENGINE\MAT2.CPP
C:\USERS\WESLEY\DOCUMENTS\VISUAL STUDIO 2017\PROJECTS\LAB4_VECTSPACESHIPSCONTINUE\ENGINE\RELEASE\VC141.PDB
^C:\USERS\WESLEY\DOCUMENTS\VISUAL STUDIO 2017\PROJECTS\LAB4_VECTSPACESHIPSCONTINUE\ENGINE\MAT3.CPP
C:\USERS\WESLEY\DOCUMENTS\VISUAL STUDIO 2017\PROJECTS\LAB4_VECTSPACESHIPSCONTINUE\ENGINE\RELEASE\VC141.PDB
^C:\USERS\WESLEY\DOCUMENTS\VISUAL STUDIO 2017\PROJECTS\LAB4_VECTSPACESHIPSCONTINUE\ENGINE\VEC2.CPP
C:\USERS\WESLEY\DOCUMENTS\VISUAL STUDIO 2017\PROJECTS\LAB4_VECTSPACESHIPSCONTINUE\ENGINE\RELEASE\VC141.PDB
