^C:\USERS\WESLEY\DOCUMENTS\VISUAL STUDIO 2017\PROJECTS\LAB01_2DCALCULATOR\LAB01_2DCALCULATOR\ADDITIONTAB.CPP
/c /I"C:\USERS\WESLEY\DOCUMENTS\VISUAL STUDIO 2017\PROJECTS\LAB01_2DCALCULATOR\\\ENGINE\\" /I"C:\USERS\WESLEY\DOCUMENTS\VISUAL STUDIO 2017\PROJECTS\LAB01_2DCALCULATOR\..\\MIDDLEWARE\\INCLUDE\\" /ZI /nologo /W4 /WX- /diagnostics:classic /Od /Oy- /D WIN32 /D _DEBUG /D _CONSOLE /D _UNICODE /D UNICODE /Gm /EHsc /RTC1 /MDd /GS /fp:precise /Zc:wchar_t /Zc:forScope /Zc:inline /Fo"DEBUG\\" /Fd"DEBUG\VC141.PDB" /Gd /TP /analyze- C:\USERS\WESLEY\DOCUMENTS\VISUAL STUDIO 2017\PROJECTS\LAB01_2DCALCULATOR\LAB01_2DCALCULATOR\ADDITIONTAB.CPP
^C:\USERS\WESLEY\DOCUMENTS\VISUAL STUDIO 2017\PROJECTS\LAB01_2DCALCULATOR\LAB01_2DCALCULATOR\DOTTAB.CPP
/c /I"C:\USERS\WESLEY\DOCUMENTS\VISUAL STUDIO 2017\PROJECTS\LAB01_2DCALCULATOR\\\ENGINE\\" /I"C:\USERS\WESLEY\DOCUMENTS\VISUAL STUDIO 2017\PROJECTS\LAB01_2DCALCULATOR\..\\MIDDLEWARE\\INCLUDE\\" /ZI /nologo /W4 /WX- /diagnostics:classic /Od /Oy- /D WIN32 /D _DEBUG /D _CONSOLE /D _UNICODE /D UNICODE /Gm /EHsc /RTC1 /MDd /GS /fp:precise /Zc:wchar_t /Zc:forScope /Zc:inline /Fo"DEBUG\\" /Fd"DEBUG\VC141.PDB" /Gd /TP /analyze- C:\USERS\WESLEY\DOCUMENTS\VISUAL STUDIO 2017\PROJECTS\LAB01_2DCALCULATOR\LAB01_2DCALCULATOR\DOTTAB.CPP
^C:\USERS\WESLEY\DOCUMENTS\VISUAL STUDIO 2017\PROJECTS\LAB01_2DCALCULATOR\LAB01_2DCALCULATOR\LERPTAB.CPP
/c /I"C:\USERS\WESLEY\DOCUMENTS\VISUAL STUDIO 2017\PROJECTS\LAB01_2DCALCULATOR\\\ENGINE\\" /I"C:\USERS\WESLEY\DOCUMENTS\VISUAL STUDIO 2017\PROJECTS\LAB01_2DCALCULATOR\..\\MIDDLEWARE\\INCLUDE\\" /ZI /nologo /W4 /WX- /diagnostics:classic /Od /Oy- /D WIN32 /D _DEBUG /D _CONSOLE /D _UNICODE /D UNICODE /Gm /EHsc /RTC1 /MDd /GS /fp:precise /Zc:wchar_t /Zc:forScope /Zc:inline /Fo"DEBUG\\" /Fd"DEBUG\VC141.PDB" /Gd /TP /analyze- C:\USERS\WESLEY\DOCUMENTS\VISUAL STUDIO 2017\PROJECTS\LAB01_2DCALCULATOR\LAB01_2DCALCULATOR\LERPTAB.CPP
^C:\USERS\WESLEY\DOCUMENTS\VISUAL STUDIO 2017\PROJECTS\LAB01_2DCALCULATOR\LAB01_2DCALCULATOR\MAIN.CPP
/c /I"C:\USERS\WESLEY\DOCUMENTS\VISUAL STUDIO 2017\PROJECTS\LAB01_2DCALCULATOR\\\ENGINE\\" /I"C:\USERS\WESLEY\DOCUMENTS\VISUAL STUDIO 2017\PROJECTS\LAB01_2DCALCULATOR\..\\MIDDLEWARE\\INCLUDE\\" /ZI /nologo /W4 /WX- /diagnostics:classic /Od /Oy- /D WIN32 /D _DEBUG /D _CONSOLE /D _UNICODE /D UNICODE /Gm /EHsc /RTC1 /MDd /GS /fp:precise /Zc:wchar_t /Zc:forScope /Zc:inline /Fo"DEBUG\\" /Fd"DEBUG\VC141.PDB" /Gd /TP /analyze- C:\USERS\WESLEY\DOCUMENTS\VISUAL STUDIO 2017\PROJECTS\LAB01_2DCALCULATOR\LAB01_2DCALCULATOR\MAIN.CPP
^C:\USERS\WESLEY\DOCUMENTS\VISUAL STUDIO 2017\PROJECTS\LAB01_2DCALCULATOR\LAB01_2DCALCULATOR\PERPENDICULARTAB.CPP
/c /I"C:\USERS\WESLEY\DOCUMENTS\VISUAL STUDIO 2017\PROJECTS\LAB01_2DCALCULATOR\\\ENGINE\\" /I"C:\USERS\WESLEY\DOCUMENTS\VISUAL STUDIO 2017\PROJECTS\LAB01_2DCALCULATOR\..\\MIDDLEWARE\\INCLUDE\\" /ZI /nologo /W4 /WX- /diagnostics:classic /Od /Oy- /D WIN32 /D _DEBUG /D _CONSOLE /D _UNICODE /D UNICODE /Gm /EHsc /RTC1 /MDd /GS /fp:precise /Zc:wchar_t /Zc:forScope /Zc:inline /Fo"DEBUG\\" /Fd"DEBUG\VC141.PDB" /Gd /TP /analyze- C:\USERS\WESLEY\DOCUMENTS\VISUAL STUDIO 2017\PROJECTS\LAB01_2DCALCULATOR\LAB01_2DCALCULATOR\PERPENDICULARTAB.CPP
^C:\USERS\WESLEY\DOCUMENTS\VISUAL STUDIO 2017\PROJECTS\LAB01_2DCALCULATOR\LAB01_2DCALCULATOR\TABMANAGER.CPP
/c /I"C:\USERS\WESLEY\DOCUMENTS\VISUAL STUDIO 2017\PROJECTS\LAB01_2DCALCULATOR\\\ENGINE\\" /I"C:\USERS\WESLEY\DOCUMENTS\VISUAL STUDIO 2017\PROJECTS\LAB01_2DCALCULATOR\..\\MIDDLEWARE\\INCLUDE\\" /ZI /nologo /W4 /WX- /diagnostics:classic /Od /Oy- /D WIN32 /D _DEBUG /D _CONSOLE /D _UNICODE /D UNICODE /Gm /EHsc /RTC1 /MDd /GS /fp:precise /Zc:wchar_t /Zc:forScope /Zc:inline /Fo"DEBUG\\" /Fd"DEBUG\VC141.PDB" /Gd /TP /analyze- C:\USERS\WESLEY\DOCUMENTS\VISUAL STUDIO 2017\PROJECTS\LAB01_2DCALCULATOR\LAB01_2DCALCULATOR\TABMANAGER.CPP
^C:\USERS\WESLEY\DOCUMENTS\VISUAL STUDIO 2017\PROJECTS\LAB 02 VECTOR SPACESHIPS\LAB01_2DCALCULATOR\ADDITIONTAB.CPP
/c /I"C:\USERS\WESLEY\DOCUMENTS\VISUAL STUDIO 2017\PROJECTS\LAB 02 VECTOR SPACESHIPS\\\ENGINE\\" /I"C:\USERS\WESLEY\DOCUMENTS\VISUAL STUDIO 2017\PROJECTS\LAB 02 VECTOR SPACESHIPS\..\\MIDDLEWARE\\INCLUDE\\" /ZI /nologo /W4 /WX- /diagnostics:classic /Od /Oy- /D WIN32 /D _DEBUG /D _CONSOLE /D _UNICODE /D UNICODE /Gm /EHsc /RTC1 /MDd /GS /fp:precise /Zc:wchar_t /Zc:forScope /Zc:inline /Fo"DEBUG\\" /Fd"DEBUG\VC141.PDB" /Gd /TP /analyze- C:\USERS\WESLEY\DOCUMENTS\VISUAL STUDIO 2017\PROJECTS\LAB 02 VECTOR SPACESHIPS\LAB01_2DCALCULATOR\ADDITIONTAB.CPP
^C:\USERS\WESLEY\DOCUMENTS\VISUAL STUDIO 2017\PROJECTS\LAB 02 VECTOR SPACESHIPS\LAB01_2DCALCULATOR\DOTTAB.CPP
/c /I"C:\USERS\WESLEY\DOCUMENTS\VISUAL STUDIO 2017\PROJECTS\LAB 02 VECTOR SPACESHIPS\\\ENGINE\\" /I"C:\USERS\WESLEY\DOCUMENTS\VISUAL STUDIO 2017\PROJECTS\LAB 02 VECTOR SPACESHIPS\..\\MIDDLEWARE\\INCLUDE\\" /ZI /nologo /W4 /WX- /diagnostics:classic /Od /Oy- /D WIN32 /D _DEBUG /D _CONSOLE /D _UNICODE /D UNICODE /Gm /EHsc /RTC1 /MDd /GS /fp:precise /Zc:wchar_t /Zc:forScope /Zc:inline /Fo"DEBUG\\" /Fd"DEBUG\VC141.PDB" /Gd /TP /analyze- C:\USERS\WESLEY\DOCUMENTS\VISUAL STUDIO 2017\PROJECTS\LAB 02 VECTOR SPACESHIPS\LAB01_2DCALCULATOR\DOTTAB.CPP
^C:\USERS\WESLEY\DOCUMENTS\VISUAL STUDIO 2017\PROJECTS\LAB 02 VECTOR SPACESHIPS\LAB01_2DCALCULATOR\LERPTAB.CPP
/c /I"C:\USERS\WESLEY\DOCUMENTS\VISUAL STUDIO 2017\PROJECTS\LAB 02 VECTOR SPACESHIPS\\\ENGINE\\" /I"C:\USERS\WESLEY\DOCUMENTS\VISUAL STUDIO 2017\PROJECTS\LAB 02 VECTOR SPACESHIPS\..\\MIDDLEWARE\\INCLUDE\\" /ZI /nologo /W4 /WX- /diagnostics:classic /Od /Oy- /D WIN32 /D _DEBUG /D _CONSOLE /D _UNICODE /D UNICODE /Gm /EHsc /RTC1 /MDd /GS /fp:precise /Zc:wchar_t /Zc:forScope /Zc:inline /Fo"DEBUG\\" /Fd"DEBUG\VC141.PDB" /Gd /TP /analyze- C:\USERS\WESLEY\DOCUMENTS\VISUAL STUDIO 2017\PROJECTS\LAB 02 VECTOR SPACESHIPS\LAB01_2DCALCULATOR\LERPTAB.CPP
^C:\USERS\WESLEY\DOCUMENTS\VISUAL STUDIO 2017\PROJECTS\LAB 02 VECTOR SPACESHIPS\LAB01_2DCALCULATOR\MAIN.CPP
/c /I"C:\USERS\WESLEY\DOCUMENTS\VISUAL STUDIO 2017\PROJECTS\LAB 02 VECTOR SPACESHIPS\\\ENGINE\\" /I"C:\USERS\WESLEY\DOCUMENTS\VISUAL STUDIO 2017\PROJECTS\LAB 02 VECTOR SPACESHIPS\..\\MIDDLEWARE\\INCLUDE\\" /ZI /nologo /W4 /WX- /diagnostics:classic /Od /Oy- /D WIN32 /D _DEBUG /D _CONSOLE /D _UNICODE /D UNICODE /Gm /EHsc /RTC1 /MDd /GS /fp:precise /Zc:wchar_t /Zc:forScope /Zc:inline /Fo"DEBUG\\" /Fd"DEBUG\VC141.PDB" /Gd /TP /analyze- C:\USERS\WESLEY\DOCUMENTS\VISUAL STUDIO 2017\PROJECTS\LAB 02 VECTOR SPACESHIPS\LAB01_2DCALCULATOR\MAIN.CPP
^C:\USERS\WESLEY\DOCUMENTS\VISUAL STUDIO 2017\PROJECTS\LAB 02 VECTOR SPACESHIPS\LAB01_2DCALCULATOR\PERPENDICULARTAB.CPP
/c /I"C:\USERS\WESLEY\DOCUMENTS\VISUAL STUDIO 2017\PROJECTS\LAB 02 VECTOR SPACESHIPS\\\ENGINE\\" /I"C:\USERS\WESLEY\DOCUMENTS\VISUAL STUDIO 2017\PROJECTS\LAB 02 VECTOR SPACESHIPS\..\\MIDDLEWARE\\INCLUDE\\" /ZI /nologo /W4 /WX- /diagnostics:classic /Od /Oy- /D WIN32 /D _DEBUG /D _CONSOLE /D _UNICODE /D UNICODE /Gm /EHsc /RTC1 /MDd /GS /fp:precise /Zc:wchar_t /Zc:forScope /Zc:inline /Fo"DEBUG\\" /Fd"DEBUG\VC141.PDB" /Gd /TP /analyze- C:\USERS\WESLEY\DOCUMENTS\VISUAL STUDIO 2017\PROJECTS\LAB 02 VECTOR SPACESHIPS\LAB01_2DCALCULATOR\PERPENDICULARTAB.CPP
^C:\USERS\WESLEY\DOCUMENTS\VISUAL STUDIO 2017\PROJECTS\LAB 02 VECTOR SPACESHIPS\LAB01_2DCALCULATOR\TABMANAGER.CPP
/c /I"C:\USERS\WESLEY\DOCUMENTS\VISUAL STUDIO 2017\PROJECTS\LAB 02 VECTOR SPACESHIPS\\\ENGINE\\" /I"C:\USERS\WESLEY\DOCUMENTS\VISUAL STUDIO 2017\PROJECTS\LAB 02 VECTOR SPACESHIPS\..\\MIDDLEWARE\\INCLUDE\\" /ZI /nologo /W4 /WX- /diagnostics:classic /Od /Oy- /D WIN32 /D _DEBUG /D _CONSOLE /D _UNICODE /D UNICODE /Gm /EHsc /RTC1 /MDd /GS /fp:precise /Zc:wchar_t /Zc:forScope /Zc:inline /Fo"DEBUG\\" /Fd"DEBUG\VC141.PDB" /Gd /TP /analyze- C:\USERS\WESLEY\DOCUMENTS\VISUAL STUDIO 2017\PROJECTS\LAB 02 VECTOR SPACESHIPS\LAB01_2DCALCULATOR\TABMANAGER.CPP
