^C:\USERS\WESLEY\DOCUMENTS\VISUAL STUDIO 2017\PROJECTS\LAB01_2DCALCULATOR\DEBUG\ENGINE.LIB|C:\USERS\WESLEY\DOCUMENTS\VISUAL STUDIO 2017\PROJECTS\LAB01_2DCALCULATOR\UNITTEST1\DEBUG\STDAFX.OBJ|C:\USERS\WESLEY\DOCUMENTS\VISUAL STUDIO 2017\PROJECTS\LAB01_2DCALCULATOR\UNITTEST1\DEBUG\UNITTEST1.OBJ
C:\WINDOWS\GLOBALIZATION\SORTING\SORTDEFAULT.NLS
C:\PROGRAM FILES (X86)\WINDOWS KITS\10\LIB\10.0.14393.0\UM\X86\KERNEL32.LIB
C:\PROGRAM FILES (X86)\WINDOWS KITS\10\LIB\10.0.14393.0\UM\X86\USER32.LIB
C:\PROGRAM FILES (X86)\WINDOWS KITS\10\LIB\10.0.14393.0\UM\X86\GDI32.LIB
C:\PROGRAM FILES (X86)\WINDOWS KITS\10\LIB\10.0.14393.0\UM\X86\WINSPOOL.LIB
C:\PROGRAM FILES (X86)\WINDOWS KITS\10\LIB\10.0.14393.0\UM\X86\COMDLG32.LIB
C:\PROGRAM FILES (X86)\WINDOWS KITS\10\LIB\10.0.14393.0\UM\X86\ADVAPI32.LIB
C:\PROGRAM FILES (X86)\WINDOWS KITS\10\LIB\10.0.14393.0\UM\X86\SHELL32.LIB
C:\PROGRAM FILES (X86)\WINDOWS KITS\10\LIB\10.0.14393.0\UM\X86\OLE32.LIB
C:\PROGRAM FILES (X86)\WINDOWS KITS\10\LIB\10.0.14393.0\UM\X86\OLEAUT32.LIB
C:\PROGRAM FILES (X86)\WINDOWS KITS\10\LIB\10.0.14393.0\UM\X86\UUID.LIB
C:\PROGRAM FILES (X86)\WINDOWS KITS\10\LIB\10.0.14393.0\UM\X86\ODBC32.LIB
C:\PROGRAM FILES (X86)\WINDOWS KITS\10\LIB\10.0.14393.0\UM\X86\ODBCCP32.LIB
C:\USERS\WESLEY\DOCUMENTS\VISUAL STUDIO 2017\PROJECTS\LAB01_2DCALCULATOR\UNITTEST1\DEBUG\STDAFX.OBJ
C:\USERS\WESLEY\DOCUMENTS\VISUAL STUDIO 2017\PROJECTS\LAB01_2DCALCULATOR\UNITTEST1\DEBUG\UNITTEST1.OBJ
C:\USERS\WESLEY\DOCUMENTS\VISUAL STUDIO 2017\PROJECTS\LAB01_2DCALCULATOR\DEBUG\ENGINE.LIB
C:\WINDOWS\SYSTEM32\TZRES.DLL
C:\PROGRAM FILES (X86)\MICROSOFT VISUAL STUDIO\2017\ENTERPRISE\VC\TOOLS\MSVC\14.10.25017\LIB\X86\MSVCPRTD.LIB
C:\PROGRAM FILES (X86)\MICROSOFT VISUAL STUDIO\2017\ENTERPRISE\VC\AUXILIARY\VS\UNITTEST\LIB\X86\MICROSOFT.VISUALSTUDIO.TESTTOOLS.CPPUNITTESTFRAMEWORK.LIB
C:\PROGRAM FILES (X86)\MICROSOFT VISUAL STUDIO\2017\ENTERPRISE\VC\TOOLS\MSVC\14.10.25017\LIB\X86\MSVCRTD.LIB
C:\PROGRAM FILES (X86)\MICROSOFT VISUAL STUDIO\2017\ENTERPRISE\VC\TOOLS\MSVC\14.10.25017\LIB\X86\OLDNAMES.LIB
C:\PROGRAM FILES (X86)\MICROSOFT VISUAL STUDIO\2017\ENTERPRISE\VC\TOOLS\MSVC\14.10.25017\LIB\X86\VCRUNTIMED.LIB
C:\PROGRAM FILES (X86)\WINDOWS KITS\10\LIB\10.0.14393.0\UCRT\X86\UCRTD.LIB
