^C:\USERS\WESLEY\DOCUMENTS\VISUAL STUDIO 2017\PROJECTS\LAB01_2DCALCULATOR\DEBUG\ENGINE.LIB|C:\USERS\WESLEY\DOCUMENTS\VISUAL STUDIO 2017\PROJECTS\LAB01_2DCALCULATOR\UNITTEST1\DEBUG\STDAFX.OBJ|C:\USERS\WESLEY\DOCUMENTS\VISUAL STUDIO 2017\PROJECTS\LAB01_2DCALCULATOR\UNITTEST1\DEBUG\UNITTEST1.OBJ
C:\USERS\WESLEY\DOCUMENTS\VISUAL STUDIO 2017\PROJECTS\LAB01_2DCALCULATOR\DEBUG\UNITTEST1.ILK
C:\USERS\WESLEY\DOCUMENTS\VISUAL STUDIO 2017\PROJECTS\LAB01_2DCALCULATOR\DEBUG\UNITTEST1.DLL
C:\USERS\WESLEY\DOCUMENTS\VISUAL STUDIO 2017\PROJECTS\LAB01_2DCALCULATOR\DEBUG\UNITTEST1.PDB
