^C:\USERS\WESLEY\DOCUMENTS\VISUAL STUDIO 2017\PROJECTS\LAB4_VECTSPACESHIPSCONTINUE\DEBUG\ENGINE.LIB|C:\USERS\WESLEY\DOCUMENTS\VISUAL STUDIO 2017\PROJECTS\LAB4_VECTSPACESHIPSCONTINUE\UNITTEST1\DEBUG\MAT2TEST.OBJ|C:\USERS\WESLEY\DOCUMENTS\VISUAL STUDIO 2017\PROJECTS\LAB4_VECTSPACESHIPSCONTINUE\UNITTEST1\DEBUG\MAT3TEST.OBJ|C:\USERS\WESLEY\DOCUMENTS\VISUAL STUDIO 2017\PROJECTS\LAB4_VECTSPACESHIPSCONTINUE\UNITTEST1\DEBUG\STDAFX.OBJ|C:\USERS\WESLEY\DOCUMENTS\VISUAL STUDIO 2017\PROJECTS\LAB4_VECTSPACESHIPSCONTINUE\UNITTEST1\DEBUG\VEC2TEST.OBJ
C:\USERS\WESLEY\DOCUMENTS\VISUAL STUDIO 2017\PROJECTS\LAB4_VECTSPACESHIPSCONTINUE\DEBUG\UNITTEST1.ILK
C:\USERS\WESLEY\DOCUMENTS\VISUAL STUDIO 2017\PROJECTS\LAB4_VECTSPACESHIPSCONTINUE\DEBUG\UNITTEST1.DLL
C:\USERS\WESLEY\DOCUMENTS\VISUAL STUDIO 2017\PROJECTS\LAB4_VECTSPACESHIPSCONTINUE\DEBUG\UNITTEST1.PDB
